{
	"info": {
		"_postman_id": "61cb2d5f-f8b0-4ea1-89da-e71ce61d1140",
		"name": "Sequelize App food",
		"schema": "https://schema.getpostman.com/json/collection/v2.1.0/collection.json",
		"_exporter_id": "25195685"
	},
	"item": [
		{
			"name": "User",
			"item": [
				{
					"name": "Get all users",
					"request": {
						"method": "GET",
						"header": [],
						"url": {
							"raw": "{{domain}}user/getAllUser",
							"host": [
								"{{domain}}user"
							],
							"path": [
								"getAllUser"
							]
						}
					},
					"response": []
				},
				{
					"name": "Get user by ID",
					"request": {
						"method": "GET",
						"header": [],
						"url": {
							"raw": "{{domain}}user/getUser/1",
							"host": [
								"{{domain}}user"
							],
							"path": [
								"getUser",
								"1"
							]
						}
					},
					"response": []
				},
				{
					"name": "Search by Name",
					"request": {
						"method": "GET",
						"header": [],
						"url": {
							"raw": "{{domain}}user/searchUser?keyword=Tony",
							"host": [
								"{{domain}}user"
							],
							"path": [
								"searchUser"
							],
							"query": [
								{
									"key": "keyword",
									"value": "Tony"
								}
							]
						}
					},
					"response": []
				},
				{
					"name": "Create User",
					"request": {
						"method": "POST",
						"header": [],
						"body": {
							"mode": "raw",
							"raw": "{ \"full_name\":\"test A\", \"email\":\"test.a@gmail.com\", \"pass_word\":\"1234\" }\r\n",
							"options": {
								"raw": {
									"language": "json"
								}
							}
						},
						"url": {
							"raw": "{{domain}}user/createUser",
							"host": [
								"{{domain}}user"
							],
							"path": [
								"createUser"
							]
						}
					},
					"response": []
				},
				{
					"name": "Update User",
					"request": {
						"method": "PUT",
						"header": [],
						"body": {
							"mode": "raw",
							"raw": "{ \"full_name\":\"test update\", \"email\":\"test.a@gmail.com\", \"pass_word\":\"1234\" }\r\n",
							"options": {
								"raw": {
									"language": "json"
								}
							}
						},
						"url": {
							"raw": "{{domain}}user/updateUser/14",
							"host": [
								"{{domain}}user"
							],
							"path": [
								"updateUser",
								"14"
							]
						}
					},
					"response": []
				},
				{
					"name": "Delete User",
					"request": {
						"method": "DELETE",
						"header": [],
						"body": {
							"mode": "raw",
							"raw": "{ \"full_name\":\"test update\", \"email\":\"test.a@gmail.com\", \"pass_word\":\"1234\" }\r\n",
							"options": {
								"raw": {
									"language": "json"
								}
							}
						},
						"url": {
							"raw": "{{domain}}user/deleteUser/6",
							"host": [
								"{{domain}}user"
							],
							"path": [
								"deleteUser",
								"6"
							]
						}
					},
					"response": []
				}
			]
		},
		{
			"name": "Food",
			"item": [
				{
					"name": "Get All Food",
					"request": {
						"method": "GET",
						"header": [],
						"url": {
							"raw": "{{domain}}food/getAllFood",
							"host": [
								"{{domain}}food"
							],
							"path": [
								"getAllFood"
							]
						}
					},
					"response": []
				},
				{
					"name": "Get Food",
					"request": {
						"method": "GET",
						"header": [],
						"url": {
							"raw": "{{domain}}food/getFood/1",
							"host": [
								"{{domain}}food"
							],
							"path": [
								"getFood",
								"1"
							]
						}
					},
					"response": []
				},
				{
					"name": "Order Food",
					"request": {
						"method": "POST",
						"header": [],
						"body": {
							"mode": "raw",
							"raw": "{\"user_id\":\"4\",\"food_id\":\"2\",\"amount\":\"2\",\"arr_sub_id\":\"[1,3]\"}",
							"options": {
								"raw": {
									"language": "json"
								}
							}
						},
						"url": {
							"raw": "{{domain}}food/orderFood/",
							"host": [
								"{{domain}}food"
							],
							"path": [
								"orderFood",
								""
							]
						}
					},
					"response": []
				}
			]
		},
		{
			"name": "Restaurant",
			"item": [
				{
					"name": "Get Restaurant",
					"request": {
						"method": "GET",
						"header": [],
						"url": {
							"raw": "{{domain}}restaurant/getRestaurant/1",
							"host": [
								"{{domain}}restaurant"
							],
							"path": [
								"getRestaurant",
								"1"
							]
						}
					},
					"response": []
				},
				{
					"name": "Like Restaurant",
					"request": {
						"method": "POST",
						"header": [],
						"body": {
							"mode": "raw",
							"raw": "{\"user_id\":\"4\",\"res_id\":\"1\"}",
							"options": {
								"raw": {
									"language": "json"
								}
							}
						},
						"url": {
							"raw": "{{domain}}restaurant/likeRestaurant/",
							"host": [
								"{{domain}}restaurant"
							],
							"path": [
								"likeRestaurant",
								""
							]
						}
					},
					"response": []
				},
				{
					"name": "Unlike Restaurant",
					"request": {
						"method": "DELETE",
						"header": [],
						"body": {
							"mode": "raw",
							"raw": "{\"user_id\":\"5\",\"res_id\":\"1\"}",
							"options": {
								"raw": {
									"language": "json"
								}
							}
						},
						"url": {
							"raw": "{{domain}}restaurant/unlikeRestaurant/",
							"host": [
								"{{domain}}restaurant"
							],
							"path": [
								"unlikeRestaurant",
								""
							]
						}
					},
					"response": []
				},
				{
					"name": "Rate Restaurant",
					"request": {
						"method": "POST",
						"header": [],
						"body": {
							"mode": "raw",
							"raw": "{\"user_id\":\"4\",\"res_id\":\"1\",\"amount\":\"5\"}",
							"options": {
								"raw": {
									"language": "json"
								}
							}
						},
						"url": {
							"raw": "{{domain}}restaurant/rateRestaurant/",
							"host": [
								"{{domain}}restaurant"
							],
							"path": [
								"rateRestaurant",
								""
							]
						}
					},
					"response": []
				}
			]
		}
	],
	"event": [
		{
			"listen": "prerequest",
			"script": {
				"type": "text/javascript",
				"exec": [
					""
				]
			}
		},
		{
			"listen": "test",
			"script": {
				"type": "text/javascript",
				"exec": [
					""
				]
			}
		}
	],
	"variable": [
		{
			"key": "domain",
			"value": "http://localhost:8080/api/",
			"type": "string"
		}
	]
}